--------- beginning of main
--------- beginning of system
06-29 20:09:59.129 11992 11992 W LogFactory: Truncating log tag length as it exceed 23, the limit imposed by Android on certain API Levels
06-29 20:10:00.843 11992 11992 E TransferService: No notification is passed in the intent. Unable to transition to foreground.
06-29 20:10:00.962 11992 11992 W StaticLayout: maxLineHeight should not be -1.  maxLines:1 lineCount:1
06-29 20:10:00.977 11992 11992 W StaticLayout: maxLineHeight should not be -1.  maxLines:1 lineCount:1
06-29 20:10:00.996 11992 11992 W StaticLayout: maxLineHeight should not be -1.  maxLines:1 lineCount:1
06-29 20:10:01.042 11992 12022 W Adreno-EGL: <qeglDrvAPI_eglGetConfigAttrib:607>: EGL_BAD_ATTRIBUTE
06-29 20:10:01.045 11992 12022 W Adreno-EGL: <qeglDrvAPI_eglGetConfigAttrib:607>: EGL_BAD_ATTRIBUTE
06-29 20:10:01.047 11992 11992 W StaticLayout: maxLineHeight should not be -1.  maxLines:1 lineCount:1
06-29 20:10:01.058 11992 11992 W StaticLayout: maxLineHeight should not be -1.  maxLines:1 lineCount:1
06-29 20:10:24.606 11992 12022 W Adreno-EGL: <qeglDrvAPI_eglGetConfigAttrib:607>: EGL_BAD_ATTRIBUTE
06-29 20:10:31.145 11992 12022 W Adreno-EGL: <qeglDrvAPI_eglGetConfigAttrib:607>: EGL_BAD_ATTRIBUTE
06-29 20:12:30.071 11992 11992 W NearbyFragment: Completed downloading 20200312_150844.mp4 from Endpoint{id=zCiv, name=Nexus 5X [34d8]} in 16.486s
06-29 20:12:30.235 11992 12378 W mobile-ffmpeg: 
06-29 20:12:30.236 11992 12378 W mobile-ffmpeg: [mov,mp4,m4a,3gp,3g2,mj2 @ 0x95505a00] 
06-29 20:12:30.236 11992 12378 W mobile-ffmpeg: 
06-29 20:12:30.236 11992 12378 W mobile-ffmpeg: Found duplicated MOOV Atom. Skipped it
06-29 20:12:51.982 11992 12377 W Summariser: Whole video is active
06-29 20:12:56.933 11992 12377 W Summariser: Summarisation completed
06-29 20:12:56.933 11992 12377 W Summariser:   filename: 20200312_150844.mp4
06-29 20:12:56.933 11992 12377 W Summariser:   active sections: -1
06-29 20:12:56.933 11992 12377 W Summariser:   time: 26.525s
06-29 20:12:56.933 11992 12377 W Summariser:   original duration: 60.02
06-29 20:12:56.933 11992 12377 W Summariser:   summarised duration: 60.02
06-29 20:12:56.933 11992 12377 W Summariser:   noise tolerance: 45.00
06-29 20:12:56.933 11992 12377 W Summariser:   quality: 23
06-29 20:12:56.933 11992 12377 W Summariser:   speed: medium
06-29 20:12:56.933 11992 12377 W Summariser:   freeze duration: 1.00
06-29 20:12:56.993 11992 12377 W NearbyFragment: Sending 20200312_150844.mp4 to Nexus 5X [34d8]
06-29 20:14:51.593 11992 11992 W NearbyFragment: Completed downloading 20200312_193728.mp4 from Endpoint{id=zCiv, name=Nexus 5X [34d8]} in 18.783s
06-29 20:14:51.638 11992 12378 W mobile-ffmpeg: 
06-29 20:14:51.638 11992 12378 W mobile-ffmpeg: [mov,mp4,m4a,3gp,3g2,mj2 @ 0x97b53a00] 
06-29 20:14:51.638 11992 12378 W mobile-ffmpeg: 
06-29 20:14:51.638 11992 12378 W mobile-ffmpeg: Found duplicated MOOV Atom. Skipped it
06-29 20:15:10.873 11992 12584 W Summariser: Whole video is active
06-29 20:15:16.540 11992 12584 W Summariser: Summarisation completed
06-29 20:15:16.540 11992 12584 W Summariser:   filename: 20200312_193728.mp4
06-29 20:15:16.540 11992 12584 W Summariser:   active sections: -1
06-29 20:15:16.540 11992 12584 W Summariser:   time: 24.642s
06-29 20:15:16.540 11992 12584 W Summariser:   original duration: 60.02
06-29 20:15:16.540 11992 12584 W Summariser:   summarised duration: 60.02
06-29 20:15:16.540 11992 12584 W Summariser:   noise tolerance: 45.00
06-29 20:15:16.540 11992 12584 W Summariser:   quality: 23
06-29 20:15:16.540 11992 12584 W Summariser:   speed: medium
06-29 20:15:16.540 11992 12584 W Summariser:   freeze duration: 1.00
06-29 20:15:16.600 11992 12584 W NearbyFragment: Sending 20200312_193728.mp4 to Nexus 5X [34d8]
06-29 20:16:49.161 11992 11992 W NearbyFragment: Completed downloading 20200312_194229.mp4 from Endpoint{id=zCiv, name=Nexus 5X [34d8]} in 14.492s
06-29 20:16:49.244 11992 12378 W mobile-ffmpeg: 
06-29 20:16:49.245 11992 12378 W mobile-ffmpeg: [mov,mp4,m4a,3gp,3g2,mj2 @ 0x97b53a00] 
06-29 20:16:49.245 11992 12378 W mobile-ffmpeg: 
06-29 20:16:49.246 11992 12378 W mobile-ffmpeg: Found duplicated MOOV Atom. Skipped it
06-29 20:17:08.982 11992 12782 W Summariser: 5 active sections found
06-29 20:17:08.997 11992 12378 W mobile-ffmpeg: 
06-29 20:17:08.997 11992 12378 W mobile-ffmpeg: [mov,mp4,m4a,3gp,3g2,mj2 @ 0x92af3c00] 
06-29 20:17:08.997 11992 12378 W mobile-ffmpeg: 
06-29 20:17:08.997 11992 12378 W mobile-ffmpeg: Found duplicated MOOV Atom. Skipped it
06-29 20:18:22.675 11992 12782 W Summariser: Summarisation completed
06-29 20:18:22.675 11992 12782 W Summariser:   filename: 20200312_194229.mp4
06-29 20:18:22.675 11992 12782 W Summariser:   active sections: 5
06-29 20:18:22.675 11992 12782 W Summariser:   time: 93.144s
06-29 20:18:22.675 11992 12782 W Summariser:   original duration: 60.02
06-29 20:18:22.675 11992 12782 W Summariser:   summarised duration: 15.51
06-29 20:18:22.675 11992 12782 W Summariser:   noise tolerance: 45.00
06-29 20:18:22.675 11992 12782 W Summariser:   quality: 23
06-29 20:18:22.675 11992 12782 W Summariser:   speed: medium
06-29 20:18:22.675 11992 12782 W Summariser:   freeze duration: 1.00
06-29 20:18:22.837 11992 12782 W NearbyFragment: Sending 20200312_194229.mp4 to Nexus 5X [34d8]
06-29 20:18:45.275 11992 11992 W NearbyFragment: Completed downloading 20200312_194930.mp4 from Endpoint{id=zCiv, name=Nexus 5X [34d8]} in 15.819s
06-29 20:18:45.316 11992 12378 W mobile-ffmpeg: 
06-29 20:18:45.316 11992 12378 W mobile-ffmpeg: [mov,mp4,m4a,3gp,3g2,mj2 @ 0xa80ac000] 
06-29 20:18:45.316 11992 12378 W mobile-ffmpeg: 
06-29 20:18:45.316 11992 12378 W mobile-ffmpeg: Found duplicated MOOV Atom. Skipped it
06-29 20:19:08.861 11992 13025 W Summariser: 2 active sections found
06-29 20:19:08.876 11992 12378 W mobile-ffmpeg: 
06-29 20:19:08.876 11992 12378 W mobile-ffmpeg: [mov,mp4,m4a,3gp,3g2,mj2 @ 0x928fa800] 
06-29 20:19:08.876 11992 12378 W mobile-ffmpeg: 
06-29 20:19:08.876 11992 12378 W mobile-ffmpeg: Found duplicated MOOV Atom. Skipped it
06-29 20:20:58.115 11992 13025 W Summariser: Summarisation completed
06-29 20:20:58.115 11992 13025 W Summariser:   filename: 20200312_194930.mp4
06-29 20:20:58.115 11992 13025 W Summariser:   active sections: 2
06-29 20:20:58.115 11992 13025 W Summariser:   time: 132.538s
06-29 20:20:58.115 11992 13025 W Summariser:   original duration: 60.02
06-29 20:20:58.115 11992 13025 W Summariser:   summarised duration: 22.25
06-29 20:20:58.115 11992 13025 W Summariser:   noise tolerance: 45.00
06-29 20:20:58.115 11992 13025 W Summariser:   quality: 23
06-29 20:20:58.115 11992 13025 W Summariser:   speed: medium
06-29 20:20:58.115 11992 13025 W Summariser:   freeze duration: 1.00
06-29 20:20:58.211 11992 13025 W NearbyFragment: Sending 20200312_194930.mp4 to Nexus 5X [34d8]
