--------- beginning of main
--------- beginning of system
07-05 21:05:24.090 13911 13911 W LogFactory: Truncating log tag length as it exceed 23, the limit imposed by Android on certain API Levels
07-05 21:05:31.131 13911 13911 E TransferService: No notification is passed in the intent. Unable to transition to foreground.
07-05 21:05:31.277 13911 13911 W StaticLayout: maxLineHeight should not be -1.  maxLines:1 lineCount:1
07-05 21:05:31.311 13911 13911 W StaticLayout: maxLineHeight should not be -1.  maxLines:1 lineCount:1
07-05 21:05:31.359 13911 13941 W Adreno-EGL: <qeglDrvAPI_eglGetConfigAttrib:607>: EGL_BAD_ATTRIBUTE
07-05 21:05:31.363 13911 13941 W Adreno-EGL: <qeglDrvAPI_eglGetConfigAttrib:607>: EGL_BAD_ATTRIBUTE
07-05 21:05:31.367 13911 13911 W StaticLayout: maxLineHeight should not be -1.  maxLines:1 lineCount:1
07-05 21:05:31.379 13911 13911 W StaticLayout: maxLineHeight should not be -1.  maxLines:1 lineCount:1
07-05 21:05:56.556 13911 13941 W Adreno-EGL: <qeglDrvAPI_eglGetConfigAttrib:607>: EGL_BAD_ATTRIBUTE
07-05 21:06:00.287 13911 13941 W Adreno-EGL: <qeglDrvAPI_eglGetConfigAttrib:607>: EGL_BAD_ATTRIBUTE
07-05 21:07:22.449 13911 13911 W NearbyFragment: Completed downloading 20200312_150643!001.mp4 from Endpoint{id=njPJ, name=Galaxy S8 [2802]} in 05.122s
07-05 21:07:23.020 13911 14163 W mobile-ffmpeg: [graph 0 input from stream 0:0 @ 0x92439e60] sws_param option is deprecated and ignored
07-05 21:07:29.121 13911 14162 W Summariser: No activity detected
07-05 21:07:29.216 13911 14162 W Summariser: Summarisation completed
07-05 21:07:29.216 13911 14162 W Summariser:   filename: 20200312_150643!001.mp4
07-05 21:07:29.216 13911 14162 W Summariser:   active sections: 0
07-05 21:07:29.216 13911 14162 W Summariser:   time: 06.330s
07-05 21:07:29.216 13911 14162 W Summariser:   original duration: 16.01
07-05 21:07:29.216 13911 14162 W Summariser:   summarised duration: -1.00
07-05 21:07:29.216 13911 14162 W Summariser:   noise tolerance: 45.00
07-05 21:07:29.216 13911 14162 W Summariser:   quality: 23
07-05 21:07:29.216 13911 14162 W Summariser:   speed: medium
07-05 21:07:29.216 13911 14162 W Summariser:   freeze duration: 1.00
07-05 21:07:49.173 13911 13911 W NearbyFragment: Completed downloading 20200312_150744!001.mp4 from Endpoint{id=njPJ, name=Galaxy S8 [2802]} in 05.551s
07-05 21:07:49.390 13911 14163 W mobile-ffmpeg: [graph 0 input from stream 0:0 @ 0x8de7d1a0] sws_param option is deprecated and ignored
07-05 21:07:55.332 13911 14214 W Summariser: No activity detected
07-05 21:07:55.423 13911 14214 W Summariser: Summarisation completed
07-05 21:07:55.423 13911 14214 W Summariser:   filename: 20200312_150744!001.mp4
07-05 21:07:55.423 13911 14214 W Summariser:   active sections: 0
07-05 21:07:55.423 13911 14214 W Summariser:   time: 06.099s
07-05 21:07:55.423 13911 14214 W Summariser:   original duration: 16.02
07-05 21:07:55.423 13911 14214 W Summariser:   summarised duration: -1.00
07-05 21:07:55.423 13911 14214 W Summariser:   noise tolerance: 45.00
07-05 21:07:55.423 13911 14214 W Summariser:   quality: 23
07-05 21:07:55.423 13911 14214 W Summariser:   speed: medium
07-05 21:07:55.423 13911 14214 W Summariser:   freeze duration: 1.00
07-05 21:08:13.475 13911 13911 W NearbyFragment: Completed downloading 20200312_150844!000.mp4 from Endpoint{id=njPJ, name=Galaxy S8 [2802]} in 04.392s
07-05 21:08:13.637 13911 14163 W mobile-ffmpeg: [graph 0 input from stream 0:0 @ 0x8daf44e0] sws_param option is deprecated and ignored
07-05 21:08:19.465 13911 14256 W Summariser: Whole video is active
07-05 21:08:20.822 13911 14256 W Summariser: Summarisation completed
07-05 21:08:20.822 13911 14256 W Summariser:   filename: 20200312_150844!000.mp4
07-05 21:08:20.822 13911 14256 W Summariser:   active sections: -1
07-05 21:08:20.822 13911 14256 W Summariser:   time: 07.164s
07-05 21:08:20.822 13911 14256 W Summariser:   original duration: 16.06
07-05 21:08:20.822 13911 14256 W Summariser:   summarised duration: 16.06
07-05 21:08:20.822 13911 14256 W Summariser:   noise tolerance: 45.00
07-05 21:08:20.822 13911 14256 W Summariser:   quality: 23
07-05 21:08:20.822 13911 14256 W Summariser:   speed: medium
07-05 21:08:20.822 13911 14256 W Summariser:   freeze duration: 1.00
07-05 21:08:20.895 13911 14256 W NearbyFragment: Sending 20200312_150844!000.mp4 to Galaxy S8 [2802]
07-05 21:08:36.035 13911 13911 W NearbyFragment: Completed downloading 20200312_150844!002.mp4 from Endpoint{id=njPJ, name=Galaxy S8 [2802]} in 14.750s
07-05 21:08:36.239 13911 14163 W mobile-ffmpeg: [graph 0 input from stream 0:0 @ 0x8daf44e0] sws_param option is deprecated and ignored
07-05 21:08:42.603 13911 14391 W Summariser: Whole video is active
07-05 21:08:43.985 13911 14391 W Summariser: Summarisation completed
07-05 21:08:43.985 13911 14391 W Summariser:   filename: 20200312_150844!002.mp4
07-05 21:08:43.985 13911 14391 W Summariser:   active sections: -1
07-05 21:08:43.985 13911 14391 W Summariser:   time: 07.709s
07-05 21:08:43.985 13911 14391 W Summariser:   original duration: 16.01
07-05 21:08:43.985 13911 14391 W Summariser:   summarised duration: 16.01
07-05 21:08:43.985 13911 14391 W Summariser:   noise tolerance: 45.00
07-05 21:08:43.985 13911 14391 W Summariser:   quality: 23
07-05 21:08:43.985 13911 14391 W Summariser:   speed: medium
07-05 21:08:43.985 13911 14391 W Summariser:   freeze duration: 1.00
07-05 21:08:44.020 13911 14391 W NearbyFragment: Sending 20200312_150844!002.mp4 to Galaxy S8 [2802]
07-05 21:09:00.017 13911 13911 W NearbyFragment: Completed downloading 20200312_150944!001.mp4 from Endpoint{id=njPJ, name=Galaxy S8 [2802]} in 05.524s
07-05 21:09:00.220 13911 14163 W mobile-ffmpeg: [graph 0 input from stream 0:0 @ 0x8daf44e0] sws_param option is deprecated and ignored
07-05 21:09:06.853 13911 14454 W Summariser: No activity detected
07-05 21:09:06.944 13911 14454 W Summariser: Summarisation completed
07-05 21:09:06.944 13911 14454 W Summariser:   filename: 20200312_150944!001.mp4
07-05 21:09:06.944 13911 14454 W Summariser:   active sections: 0
07-05 21:09:06.944 13911 14454 W Summariser:   time: 06.780s
07-05 21:09:06.944 13911 14454 W Summariser:   original duration: 16.01
07-05 21:09:06.944 13911 14454 W Summariser:   summarised duration: -1.00
07-05 21:09:06.944 13911 14454 W Summariser:   noise tolerance: 45.00
07-05 21:09:06.944 13911 14454 W Summariser:   quality: 23
07-05 21:09:06.944 13911 14454 W Summariser:   speed: medium
07-05 21:09:06.944 13911 14454 W Summariser:   freeze duration: 1.00
07-05 21:09:12.304 13911 13911 W NearbyFragment: Completed downloading 20200312_150944!003.mp4 from Endpoint{id=njPJ, name=Galaxy S8 [2802]} in 04.592s
07-05 21:09:12.490 13911 14163 W mobile-ffmpeg: [graph 0 input from stream 0:0 @ 0x8daf68e0] sws_param option is deprecated and ignored
07-05 21:09:17.297 13911 14493 W Summariser: No activity detected
07-05 21:09:17.367 13911 14493 W Summariser: Summarisation completed
07-05 21:09:17.367 13911 14493 W Summariser:   filename: 20200312_150944!003.mp4
07-05 21:09:17.367 13911 14493 W Summariser:   active sections: 0
07-05 21:09:17.367 13911 14493 W Summariser:   time: 04.945s
07-05 21:09:17.367 13911 14493 W Summariser:   original duration: 12.01
07-05 21:09:17.367 13911 14493 W Summariser:   summarised duration: -1.00
07-05 21:09:17.367 13911 14493 W Summariser:   noise tolerance: 45.00
07-05 21:09:17.367 13911 14493 W Summariser:   quality: 23
07-05 21:09:17.367 13911 14493 W Summariser:   speed: medium
07-05 21:09:17.367 13911 14493 W Summariser:   freeze duration: 1.00
07-05 21:09:26.272 13911 13911 W NearbyFragment: Completed downloading 20200312_151044!000.mp4 from Endpoint{id=njPJ, name=Galaxy S8 [2802]} in 05.401s
07-05 21:09:26.456 13911 14163 W mobile-ffmpeg: [graph 0 input from stream 0:0 @ 0x924398c0] sws_param option is deprecated and ignored
07-05 21:09:33.046 13911 14532 W Summariser: No activity detected
07-05 21:09:33.115 13911 14532 W Summariser: Summarisation completed
07-05 21:09:33.115 13911 14532 W Summariser:   filename: 20200312_151044!000.mp4
07-05 21:09:33.115 13911 14532 W Summariser:   active sections: 0
07-05 21:09:33.115 13911 14532 W Summariser:   time: 06.727s
07-05 21:09:33.115 13911 14532 W Summariser:   original duration: 16.07
07-05 21:09:33.115 13911 14532 W Summariser:   summarised duration: -1.00
07-05 21:09:33.115 13911 14532 W Summariser:   noise tolerance: 45.00
07-05 21:09:33.115 13911 14532 W Summariser:   quality: 23
07-05 21:09:33.115 13911 14532 W Summariser:   speed: medium
07-05 21:09:33.115 13911 14532 W Summariser:   freeze duration: 1.00
07-05 21:09:53.448 13911 13911 W NearbyFragment: Completed downloading 20200312_193528!000.mp4 from Endpoint{id=njPJ, name=Galaxy S8 [2802]} in 05.112s
07-05 21:09:53.901 13911 14163 W mobile-ffmpeg: [graph 0 input from stream 0:0 @ 0x8de7cc60] sws_param option is deprecated and ignored
07-05 21:10:00.369 13911 14574 W Summariser: No activity detected
07-05 21:10:00.437 13911 14574 W Summariser: Summarisation completed
07-05 21:10:00.437 13911 14574 W Summariser:   filename: 20200312_193528!000.mp4
07-05 21:10:00.437 13911 14574 W Summariser:   active sections: 0
07-05 21:10:00.437 13911 14574 W Summariser:   time: 06.597s
07-05 21:10:00.437 13911 14574 W Summariser:   original duration: 16.06
07-05 21:10:00.437 13911 14574 W Summariser:   summarised duration: -1.00
07-05 21:10:00.437 13911 14574 W Summariser:   noise tolerance: 45.00
07-05 21:10:00.437 13911 14574 W Summariser:   quality: 23
07-05 21:10:00.437 13911 14574 W Summariser:   speed: medium
07-05 21:10:00.437 13911 14574 W Summariser:   freeze duration: 1.00
07-05 21:10:21.182 13911 13911 W NearbyFragment: Completed downloading 20200312_193628!000.mp4 from Endpoint{id=njPJ, name=Galaxy S8 [2802]} in 04.911s
07-05 21:10:21.699 13911 14163 W mobile-ffmpeg: [graph 0 input from stream 0:0 @ 0x8daf4000] sws_param option is deprecated and ignored
07-05 21:10:28.170 13911 14614 W Summariser: No activity detected
07-05 21:10:28.229 13911 14614 W Summariser: Summarisation completed
07-05 21:10:28.229 13911 14614 W Summariser:   filename: 20200312_193628!000.mp4
07-05 21:10:28.229 13911 14614 W Summariser:   active sections: 0
07-05 21:10:28.229 13911 14614 W Summariser:   time: 06.921s
07-05 21:10:28.229 13911 14614 W Summariser:   original duration: 16.07
07-05 21:10:28.229 13911 14614 W Summariser:   summarised duration: -1.00
07-05 21:10:28.229 13911 14614 W Summariser:   noise tolerance: 45.00
07-05 21:10:28.229 13911 14614 W Summariser:   quality: 23
07-05 21:10:28.229 13911 14614 W Summariser:   speed: medium
07-05 21:10:28.229 13911 14614 W Summariser:   freeze duration: 1.00
07-05 21:10:39.552 13911 13911 W NearbyFragment: Completed downloading 20200312_193628!003.mp4 from Endpoint{id=njPJ, name=Galaxy S8 [2802]} in 11.083s
07-05 21:10:39.723 13911 14163 W mobile-ffmpeg: [graph 0 input from stream 0:0 @ 0x8daf61c0] sws_param option is deprecated and ignored
07-05 21:10:44.939 13911 14674 W Summariser: 1 active sections found
07-05 21:10:45.037 13911 14163 W mobile-ffmpeg: [graph 0 input from stream 0:0 @ 0x911684a0] sws_param option is deprecated and ignored
07-05 21:11:05.083 13911 14674 W Summariser: Summarisation completed
07-05 21:11:05.083 13911 14674 W Summariser:   filename: 20200312_193628!003.mp4
07-05 21:11:05.083 13911 14674 W Summariser:   active sections: 1
07-05 21:11:05.083 13911 14674 W Summariser:   time: 25.353s
07-05 21:11:05.083 13911 14674 W Summariser:   original duration: 12.03
07-05 21:11:05.083 13911 14674 W Summariser:   summarised duration: 6.16
07-05 21:11:05.083 13911 14674 W Summariser:   noise tolerance: 45.00
07-05 21:11:05.083 13911 14674 W Summariser:   quality: 23
07-05 21:11:05.083 13911 14674 W Summariser:   speed: medium
07-05 21:11:05.083 13911 14674 W Summariser:   freeze duration: 1.00
07-05 21:11:05.128 13911 14674 W NearbyFragment: Sending 20200312_193628!003.mp4 to Galaxy S8 [2802]
07-05 21:11:26.814 13911 13911 W NearbyFragment: Completed downloading 20200312_193828!000.mp4 from Endpoint{id=njPJ, name=Galaxy S8 [2802]} in 06.187s
07-05 21:11:27.021 13911 14163 W mobile-ffmpeg: [graph 0 input from stream 0:0 @ 0x91168620] sws_param option is deprecated and ignored
07-05 21:11:34.574 13911 14780 W Summariser: 1 active sections found
07-05 21:11:34.689 13911 14163 W mobile-ffmpeg: [graph 0 input from stream 0:0 @ 0x90a1b7e0] sws_param option is deprecated and ignored
07-05 21:12:27.521 13911 14780 W Summariser: Summarisation completed
07-05 21:12:27.521 13911 14780 W Summariser:   filename: 20200312_193828!000.mp4
07-05 21:12:27.521 13911 14780 W Summariser:   active sections: 1
07-05 21:12:27.521 13911 14780 W Summariser:   time: 60.453s
07-05 21:12:27.521 13911 14780 W Summariser:   original duration: 16.06
07-05 21:12:27.521 13911 14780 W Summariser:   summarised duration: 14.28
07-05 21:12:27.521 13911 14780 W Summariser:   noise tolerance: 45.00
07-05 21:12:27.521 13911 14780 W Summariser:   quality: 23
07-05 21:12:27.521 13911 14780 W Summariser:   speed: medium
07-05 21:12:27.521 13911 14780 W Summariser:   freeze duration: 1.00
07-05 21:12:27.629 13911 14780 W NearbyFragment: Sending 20200312_193828!000.mp4 to Galaxy S8 [2802]
07-05 21:12:49.855 13911 13911 W NearbyFragment: Completed downloading 20200312_194229!000.mp4 from Endpoint{id=njPJ, name=Galaxy S8 [2802]} in 04.560s
07-05 21:12:50.121 13911 14163 W mobile-ffmpeg: [graph 0 input from stream 0:0 @ 0xa53b4a80] sws_param option is deprecated and ignored
07-05 21:12:58.223 13911 14891 W Summariser: 1 active sections found
07-05 21:12:58.360 13911 14163 W mobile-ffmpeg: [graph 0 input from stream 0:0 @ 0xa53b6d00] sws_param option is deprecated and ignored
07-05 21:13:20.819 13911 14891 W Summariser: Summarisation completed
07-05 21:13:20.819 13911 14891 W Summariser:   filename: 20200312_194229!000.mp4
07-05 21:13:20.819 13911 14891 W Summariser:   active sections: 1
07-05 21:13:20.819 13911 14891 W Summariser:   time: 30.675s
07-05 21:13:20.819 13911 14891 W Summariser:   original duration: 16.06
07-05 21:13:20.819 13911 14891 W Summariser:   summarised duration: 5.62
07-05 21:13:20.819 13911 14891 W Summariser:   noise tolerance: 45.00
07-05 21:13:20.819 13911 14891 W Summariser:   quality: 23
07-05 21:13:20.819 13911 14891 W Summariser:   speed: medium
07-05 21:13:20.819 13911 14891 W Summariser:   freeze duration: 1.00
07-05 21:13:20.899 13911 14891 W NearbyFragment: Sending 20200312_194229!000.mp4 to Galaxy S8 [2802]
07-05 21:13:33.374 13911 13911 W NearbyFragment: Completed downloading 20200312_194330!003.mp4 from Endpoint{id=njPJ, name=Galaxy S8 [2802]} in 11.788s
07-05 21:13:33.672 13911 14163 W mobile-ffmpeg: [graph 0 input from stream 0:0 @ 0xa53b6e20] sws_param option is deprecated and ignored
07-05 21:13:41.619 13911 15002 W Summariser: No activity detected
07-05 21:13:41.728 13911 15002 W Summariser: Summarisation completed
07-05 21:13:41.728 13911 15002 W Summariser:   filename: 20200312_194330!003.mp4
07-05 21:13:41.728 13911 15002 W Summariser:   active sections: 0
07-05 21:13:41.728 13911 15002 W Summariser:   time: 08.134s
07-05 21:13:41.728 13911 15002 W Summariser:   original duration: 12.01
07-05 21:13:41.728 13911 15002 W Summariser:   summarised duration: -1.00
07-05 21:13:41.728 13911 15002 W Summariser:   noise tolerance: 45.00
07-05 21:13:41.728 13911 15002 W Summariser:   quality: 23
07-05 21:13:41.728 13911 15002 W Summariser:   speed: medium
07-05 21:13:41.728 13911 15002 W Summariser:   freeze duration: 1.00
07-05 21:13:54.783 13911 13911 W NearbyFragment: Completed downloading 20200312_194730!001.mp4 from Endpoint{id=njPJ, name=Galaxy S8 [2802]} in 12.938s
07-05 21:13:55.106 13911 14163 W mobile-ffmpeg: [graph 0 input from stream 0:0 @ 0xa53b4a80] sws_param option is deprecated and ignored
07-05 21:14:03.204 13911 15116 W Summariser: No activity detected
07-05 21:14:03.305 13911 15116 W Summariser: Summarisation completed
07-05 21:14:03.305 13911 15116 W Summariser:   filename: 20200312_194730!001.mp4
07-05 21:14:03.305 13911 15116 W Summariser:   active sections: 0
07-05 21:14:03.305 13911 15116 W Summariser:   time: 08.329s
07-05 21:14:03.305 13911 15116 W Summariser:   original duration: 16.02
07-05 21:14:03.305 13911 15116 W Summariser:   summarised duration: -1.00
07-05 21:14:03.305 13911 15116 W Summariser:   noise tolerance: 45.00
07-05 21:14:03.305 13911 15116 W Summariser:   quality: 23
07-05 21:14:03.305 13911 15116 W Summariser:   speed: medium
07-05 21:14:03.305 13911 15116 W Summariser:   freeze duration: 1.00
07-05 21:14:15.768 13911 13911 W NearbyFragment: Completed downloading 20200312_194830!000.mp4 from Endpoint{id=njPJ, name=Galaxy S8 [2802]} in 05.089s
07-05 21:14:16.293 13911 14163 W mobile-ffmpeg: [graph 0 input from stream 0:0 @ 0x8c56c2e0] sws_param option is deprecated and ignored
07-05 21:14:23.982 13911 15177 W Summariser: 1 active sections found
07-05 21:14:24.132 13911 14163 W mobile-ffmpeg: [graph 0 input from stream 0:0 @ 0x8d166560] sws_param option is deprecated and ignored
07-05 21:14:40.503 13911 15177 W Summariser: Summarisation completed
07-05 21:14:40.503 13911 15177 W Summariser:   filename: 20200312_194830!000.mp4
07-05 21:14:40.503 13911 15177 W Summariser:   active sections: 1
07-05 21:14:40.503 13911 15177 W Summariser:   time: 24.211s
07-05 21:14:40.503 13911 15177 W Summariser:   original duration: 16.06
07-05 21:14:40.503 13911 15177 W Summariser:   summarised duration: 3.97
07-05 21:14:40.503 13911 15177 W Summariser:   noise tolerance: 45.00
07-05 21:14:40.503 13911 15177 W Summariser:   quality: 23
07-05 21:14:40.503 13911 15177 W Summariser:   speed: medium
07-05 21:14:40.503 13911 15177 W Summariser:   freeze duration: 1.00
07-05 21:14:40.549 13911 15177 W NearbyFragment: Sending 20200312_194830!000.mp4 to Galaxy S8 [2802]
07-05 21:14:51.448 13911 13911 W NearbyFragment: Completed downloading 20200312_194930!001.mp4 from Endpoint{id=njPJ, name=Galaxy S8 [2802]} in 10.848s
07-05 21:14:51.777 13911 14163 W mobile-ffmpeg: [graph 0 input from stream 0:0 @ 0x8d166620] sws_param option is deprecated and ignored
07-05 21:15:02.154 13911 15304 W Summariser: 1 active sections found
07-05 21:15:02.360 13911 14163 W mobile-ffmpeg: [graph 0 input from stream 0:0 @ 0x8d13a780] sws_param option is deprecated and ignored
07-05 21:15:11.269 13911 15304 W Summariser: Summarisation completed
07-05 21:15:11.269 13911 15304 W Summariser:   filename: 20200312_194930!001.mp4
07-05 21:15:11.269 13911 15304 W Summariser:   active sections: 1
07-05 21:15:11.269 13911 15304 W Summariser:   time: 19.541s
07-05 21:15:11.269 13911 15304 W Summariser:   original duration: 16.01
07-05 21:15:11.269 13911 15304 W Summariser:   summarised duration: 2.02
07-05 21:15:11.269 13911 15304 W Summariser:   noise tolerance: 45.00
07-05 21:15:11.269 13911 15304 W Summariser:   quality: 23
07-05 21:15:11.269 13911 15304 W Summariser:   speed: medium
07-05 21:15:11.269 13911 15304 W Summariser:   freeze duration: 1.00
07-05 21:15:11.339 13911 15304 W NearbyFragment: Sending 20200312_194930!001.mp4 to Galaxy S8 [2802]
07-05 21:15:23.184 13911 13911 W NearbyFragment: Completed downloading 20200312_195230!002.mp4 from Endpoint{id=njPJ, name=Galaxy S8 [2802]} in 11.738s
07-05 21:15:23.444 13911 14163 W mobile-ffmpeg: [graph 0 input from stream 0:0 @ 0x8d13a900] sws_param option is deprecated and ignored
07-05 21:15:32.068 13911 15402 W Summariser: No activity detected
07-05 21:15:32.164 13911 15402 W Summariser: Summarisation completed
07-05 21:15:32.164 13911 15402 W Summariser:   filename: 20200312_195230!002.mp4
07-05 21:15:32.164 13911 15402 W Summariser:   active sections: 0
07-05 21:15:32.164 13911 15402 W Summariser:   time: 08.822s
07-05 21:15:32.164 13911 15402 W Summariser:   original duration: 16.01
07-05 21:15:32.164 13911 15402 W Summariser:   summarised duration: -1.00
07-05 21:15:32.164 13911 15402 W Summariser:   noise tolerance: 45.00
07-05 21:15:32.164 13911 15402 W Summariser:   quality: 23
07-05 21:15:32.164 13911 15402 W Summariser:   speed: medium
07-05 21:15:32.164 13911 15402 W Summariser:   freeze duration: 1.00
07-05 21:15:42.740 13911 13911 W NearbyFragment: Completed downloading 20200312_195330!000.mp4 from Endpoint{id=njPJ, name=Galaxy S8 [2802]} in 04.734s
07-05 21:15:42.954 13911 14163 W mobile-ffmpeg: [graph 0 input from stream 0:0 @ 0x8d13cc40] sws_param option is deprecated and ignored
07-05 21:15:50.698 13911 15433 W Summariser: 1 active sections found
07-05 21:15:50.830 13911 14163 W mobile-ffmpeg: [graph 0 input from stream 0:0 @ 0x8d09dce0] sws_param option is deprecated and ignored
07-05 21:15:59.297 13911 15433 W Summariser: Summarisation completed
07-05 21:15:59.297 13911 15433 W Summariser:   filename: 20200312_195330!000.mp4
07-05 21:15:59.297 13911 15433 W Summariser:   active sections: 1
07-05 21:15:59.297 13911 15433 W Summariser:   time: 16.367s
07-05 21:15:59.297 13911 15433 W Summariser:   original duration: 16.07
07-05 21:15:59.297 13911 15433 W Summariser:   summarised duration: 1.11
07-05 21:15:59.297 13911 15433 W Summariser:   noise tolerance: 45.00
07-05 21:15:59.297 13911 15433 W Summariser:   quality: 23
07-05 21:15:59.297 13911 15433 W Summariser:   speed: medium
07-05 21:15:59.297 13911 15433 W Summariser:   freeze duration: 1.00
07-05 21:15:59.334 13911 15433 W NearbyFragment: Sending 20200312_195330!000.mp4 to Galaxy S8 [2802]
07-05 21:16:10.169 13911 13911 W NearbyFragment: Completed downloading 20200312_195430!000.mp4 from Endpoint{id=njPJ, name=Galaxy S8 [2802]} in 03.778s
07-05 21:16:10.372 13911 14163 W mobile-ffmpeg: [graph 0 input from stream 0:0 @ 0x8d09dce0] sws_param option is deprecated and ignored
07-05 21:16:18.110 13911 15536 W Summariser: 1 active sections found
07-05 21:16:18.236 13911 14163 W mobile-ffmpeg: [graph 0 input from stream 0:0 @ 0x79e83fc0] sws_param option is deprecated and ignored
07-05 21:16:38.552 13911 15536 W Summariser: Summarisation completed
07-05 21:16:38.552 13911 15536 W Summariser:   filename: 20200312_195430!000.mp4
07-05 21:16:38.552 13911 15536 W Summariser:   active sections: 1
07-05 21:16:38.552 13911 15536 W Summariser:   time: 28.157s
07-05 21:16:38.552 13911 15536 W Summariser:   original duration: 16.06
07-05 21:16:38.552 13911 15536 W Summariser:   summarised duration: 5.34
07-05 21:16:38.552 13911 15536 W Summariser:   noise tolerance: 45.00
07-05 21:16:38.552 13911 15536 W Summariser:   quality: 23
07-05 21:16:38.552 13911 15536 W Summariser:   speed: medium
07-05 21:16:38.552 13911 15536 W Summariser:   freeze duration: 1.00
07-05 21:16:38.619 13911 15536 W NearbyFragment: Sending 20200312_195430!000.mp4 to Galaxy S8 [2802]
